<?xml version="1.0" encoding="UTF-8" standalone="no"?>
<!-- Created with Inkscape (http://www.inkscape.org/) -->

<svg
   xmlns:dc="http://purl.org/dc/elements/1.1/"
   xmlns:cc="http://creativecommons.org/ns#"
   xmlns:rdf="http://www.w3.org/1999/02/22-rdf-syntax-ns#"
   xmlns:svg="http://www.w3.org/2000/svg"
   xmlns="http://www.w3.org/2000/svg"
   xmlns:sodipodi="http://sodipodi.sourceforge.net/DTD/sodipodi-0.dtd"
   xmlns:inkscape="http://www.inkscape.org/namespaces/inkscape"
   id="svg2"
   version="1.1"
   inkscape:version="0.48.3.1 r9886"
   width="882"
   height="868"
   sodipodi:docname="F02-n.png">
  <metadata
     id="metadata8">
    <rdf:RDF>
      <cc:Work
         rdf:about="">
        <dc:format>image/svg+xml</dc:format>
        <dc:type
           rdf:resource="http://purl.org/dc/dcmitype/StillImage" />
        <dc:title></dc:title>
      </cc:Work>
    </rdf:RDF>
  </metadata>
  <defs
     id="defs6" />
  <sodipodi:namedview
     pagecolor="#ffffff"
     bordercolor="#666666"
     borderopacity="1"
     objecttolerance="10"
     gridtolerance="10"
     guidetolerance="10"
     inkscape:pageopacity="0"
     inkscape:pageshadow="2"
     inkscape:window-width="640"
     inkscape:window-height="480"
     id="namedview4"
     showgrid="false"
     inkscape:zoom="0.2718894"
     inkscape:cx="441"
     inkscape:cy="434"
     inkscape:window-x="0"
     inkscape:window-y="27"
     inkscape:window-maximized="0"
     inkscape:current-layer="svg2" />
  <path
     style="fill:#000000"
     d="m 473.5,671.04379 c -19.91432,-1.92537 -33.74708,-6.97396 -51.13346,-18.66234 -22.35486,-15.02856 -41.88731,-41.82208 -54.58851,-74.88145 -2.53567,-6.6 -5.83649,-16.05 -7.33514,-21 -1.49866,-4.95 -2.96412,-9.675 -3.2566,-10.5 -2.89372,-8.16256 -9.94449,-44.41149 -10.60078,-54.5 -1.26847,-19.49919 -3.58519,-46.16294 -5.03941,-58 -1.97911,-16.10964 -3.43827,-29.7556 -4.58892,-42.9152 -0.52492,-6.00336 -1.40252,-12.52836 -1.95021,-14.5 -0.5477,-1.97164 -0.99833,-5.52312 -1.00139,-7.89217 -0.003,-2.36906 -0.4492,-7.31906 -0.9914,-11 -3.0931,-20.99879 -4.48278,-33.75179 -4.59766,-42.19263 -0.0711,-5.225 -0.39207,-20.525 -0.71324,-34 -0.72526,-30.4294 0.9542,-51.53862 5.78567,-72.7202 2.00902,-8.80772 6.56197,-23.51431 7.65599,-24.7298 0.47028,-0.5225 0.85506,-1.71583 0.85506,-2.65185 0,-2.26235 8.58444,-22.27961 11.61017,-27.07267 1.31441,-2.08215 2.38983,-3.98665 2.38983,-4.2322 0,-0.84628 9.61738,-16.10318 13.055,-20.7103 14.63142,-19.60916 20.09051,-26.08559 32.41965,-38.461271 16.46989,-16.53206 23.27373,-21.749596 39.22897,-30.082797 C 460.91964,49.780365 474.838,46.286001 501.5,45.075293 c 26.97581,-1.224959 61.83768,2.003882 81.5,7.548376 20.63445,5.818621 47.93273,17.956425 62.85917,27.949468 4.04755,2.709775 8.11952,5.376863 9.04882,5.926863 7.67794,4.544107 36.44191,30.42832 45.97738,41.37427 4.61196,5.29415 9.56956,10.97573 11.01689,12.62573 3.18914,3.63571 12.33369,17.50022 17.66883,26.7886 3.24052,5.64168 4.08937,6.52865 5.02435,5.25 0.61877,-0.84623 1.63794,-1.5386 2.2648,-1.5386 1.35864,0 1.54487,5.6316 0.21343,6.45447 -0.9753,0.60277 -0.0799,4.78557 1.73695,8.11392 1.98014,3.62751 10.10655,30.91352 11.74365,39.43161 0.89849,4.675 2.04135,8.9275 2.53968,9.45 0.49833,0.5225 0.91965,2.5475 0.93626,4.5 0.0166,1.9525 0.93853,7.825 2.0487,13.05 1.11016,5.225 2.24037,11.51006 2.51157,13.96681 0.2712,2.45674 0.9852,4.77094 1.58665,5.14267 0.63413,0.39191 0.81863,1.77127 0.43917,3.28319 -0.38455,1.53216 -0.23418,2.60733 0.36465,2.60733 0.56048,0 1.01905,0.9 1.01905,2 0,1.1 -0.3567,2 -0.79267,2 -0.43597,0 -0.1892,4.3875 0.54839,9.75 2.53056,18.39797 3.37515,36.80812 3.47512,75.75 0.13454,52.40585 -0.17989,64.54557 -1.73656,67.04658 -0.7006,1.12562 -1.51118,4.27562 -1.80129,7 -0.29011,2.72438 -1.25955,7.87842 -2.15431,11.45342 -0.89476,3.575 -1.87294,8.3 -2.17373,10.5 -0.54586,3.99246 -9.00829,30.10511 -10.37036,32 -0.39535,0.55 -1.0367,2.35 -1.42523,4 -0.6516,2.76724 -8.75094,19.7078 -10.51827,22 -0.42406,0.55 -2.71541,4.6 -5.09189,9 -2.37647,4.4 -4.91381,8.59397 -5.63853,9.31993 -0.72472,0.72596 -1.61397,2.50051 -1.97613,3.94344 -0.87414,3.48287 -5.1163,9.62244 -15.01901,21.73663 -10.95112,13.39673 -19.0786,21.66675 -29.51593,30.03356 -8.12604,6.51403 -14.10807,10.31355 -39.3096,24.96769 -5.5,3.19814 -13.93269,8.21868 -18.73931,11.15677 -4.80663,2.93809 -9.02276,5.34198 -9.36919,5.34198 -0.34643,0 -3.38874,1.6774 -6.76069,3.72755 C 593.76578,645.72553 572.06278,657 570.38191,657 c -0.31881,0 -1.99766,0.61176 -3.73078,1.35947 -23.10126,9.9664 -36.25251,12.65459 -64.15113,13.11284 -11.55,0.18972 -24.6,-0.003 -29,-0.42852 z m 57.5,-3.90443 c 5.225,-1.07975 12.875,-3.07898 17,-4.44273 7.17384,-2.37171 9.59851,-3.2945 16.65113,-6.33716 1.73312,-0.74771 3.41197,-1.35947 3.73078,-1.35947 1.68087,0 23.38387,-11.27447 33.2489,-17.27245 C 605.00276,635.6774 608.04507,634 608.3915,634 c 0.34643,0 4.56256,-2.40389 9.36919,-5.34198 4.80662,-2.93809 13.23931,-7.95863 18.73931,-11.15677 25.20153,-14.65414 31.18356,-18.45366 39.3096,-24.96769 10.43733,-8.36681 18.56481,-16.63683 29.51593,-30.03356 9.90271,-12.11419 14.14487,-18.25376 15.01901,-21.73663 0.36216,-1.44293 1.25141,-3.21748 1.97613,-3.94344 0.72472,-0.72596 3.26206,-4.91993 5.63853,-9.31993 2.37648,-4.4 4.66783,-8.45 5.09189,-9 1.76733,-2.2922 9.86667,-19.23276 10.51827,-22 0.38853,-1.65 1.02988,-3.45 1.42523,-4 1.36207,-1.89489 9.8245,-28.00754 10.37036,-32 0.30079,-2.2 1.27897,-6.925 2.17373,-10.5 0.89476,-3.575 1.86086,-8.75 2.14688,-11.5 0.28603,-2.75 0.96012,-5.53989 1.49799,-6.19976 1.47642,-1.81129 2.05057,-18.80321 2.05442,-60.80024 0.005,-51.25377 -2.06824,-78.34826 -8.75283,-114.40474 -1.36683,-7.3726 -2.48514,-14.8201 -2.48514,-16.55 0,-1.72989 -0.40772,-3.57276 -0.90605,-4.09526 -0.49833,-0.5225 -1.64119,-4.775 -2.53968,-9.45 -0.89849,-4.675 -3.68167,-15.025 -6.18482,-23 -5.96527,-19.0052 -7.3271,-22.18422 -15.07494,-35.19077 -7.10846,-11.9332 -14.22945,-22.70562 -17.39142,-26.30923 -1.44779,-1.65 -6.40576,-7.33158 -11.01772,-12.62573 C 689.3499,118.92832 660.58593,93.044107 652.90799,88.5 651.97869,87.95 647.90672,85.282912 643.85917,82.573137 628.93731,72.58316 601.69154,60.467302 581,54.620441 561.80337,49.196 528.7752,46.041627 502.72609,47.14485 477.0581,48.231932 462.80605,51.839691 442.70362,62.338912 426.74838,70.672113 419.94454,75.889649 403.47465,92.421709 391.14551,104.79739 385.68642,111.27382 371.055,130.88298 367.61738,135.4901 358,150.747 358,151.59328 c 0,0.24555 -1.07542,2.15005 -2.38983,4.2322 C 352.58444,160.61854 344,180.6358 344,182.89815 c 0,0.93602 -0.38478,2.12935 -0.85506,2.65185 -1.2923,1.43579 -5.89549,16.79508 -8.07692,26.95 -6.60444,30.74469 -7.3248,86.71521 -1.67157,129.87864 1.43195,10.93326 2.60606,21.73326 2.60913,24 0.003,2.26675 0.45369,5.73452 1.00139,7.70616 0.54769,1.97164 1.42529,8.49664 1.95021,14.5 1.15065,13.1596 2.60981,26.80556 4.58892,42.9152 1.45422,11.83706 3.77094,38.50081 5.03941,58 0.65629,10.08851 7.70706,46.33744 10.60078,54.5 0.29248,0.825 1.75794,5.55 3.2566,10.5 13.38469,44.20917 35.11813,77.86083 61.92365,95.88145 23.65507,15.90265 39.65644,19.81038 78.13346,19.08119 13.80945,-0.26172 21.59527,-0.8964 28.5,-2.32328 z"
     id="path2989"
     inkscape:connector-curvature="0" />
  <path
     style="fill:#000000"
     d="m 473.5,671.04379 c -19.91432,-1.92537 -33.74708,-6.97396 -51.13346,-18.66234 -22.35486,-15.02856 -41.88731,-41.82208 -54.58851,-74.88145 -2.53567,-6.6 -5.83649,-16.05 -7.33514,-21 -1.49866,-4.95 -2.96412,-9.675 -3.2566,-10.5 -2.89372,-8.16256 -9.94449,-44.41149 -10.60078,-54.5 -1.26847,-19.49919 -3.58519,-46.16294 -5.03941,-58 -1.97911,-16.10964 -3.43827,-29.7556 -4.58892,-42.9152 -0.52492,-6.00336 -1.40252,-12.52836 -1.95021,-14.5 -0.5477,-1.97164 -0.99833,-5.52312 -1.00139,-7.89217 -0.003,-2.36906 -0.4492,-7.31906 -0.9914,-11 -3.0931,-20.99879 -4.48278,-33.75179 -4.59766,-42.19263 -0.0711,-5.225 -0.39207,-20.525 -0.71324,-34 -0.72526,-30.4294 0.9542,-51.53862 5.78567,-72.7202 2.00902,-8.80772 6.56197,-23.51431 7.65599,-24.7298 0.47028,-0.5225 0.85506,-1.71583 0.85506,-2.65185 0,-2.26235 8.58444,-22.27961 11.61017,-27.07267 1.31441,-2.08215 2.38983,-3.98665 2.38983,-4.2322 0,-0.84628 9.61738,-16.10318 13.055,-20.7103 14.63142,-19.60916 20.09051,-26.08559 32.41965,-38.461271 16.46989,-16.53206 23.27373,-21.749596 39.22897,-30.082797 C 460.91964,49.780365 474.838,46.286001 501.5,45.075293 c 26.97581,-1.224959 61.83768,2.003882 81.5,7.548376 20.63445,5.818621 47.93273,17.956425 62.85917,27.949468 4.04755,2.709775 8.11952,5.376863 9.04882,5.926863 7.67794,4.544107 36.44191,30.42832 45.97738,41.37427 4.61196,5.29415 9.56956,10.97573 11.01689,12.62573 3.18914,3.63571 12.33369,17.50022 17.66883,26.7886 3.24052,5.64168 4.08937,6.52865 5.02435,5.25 0.61877,-0.84623 1.63794,-1.5386 2.2648,-1.5386 1.35864,0 1.54487,5.6316 0.21343,6.45447 -0.9753,0.60277 -0.0799,4.78557 1.73695,8.11392 1.98014,3.62751 10.10655,30.91352 11.74365,39.43161 0.89849,4.675 2.04135,8.9275 2.53968,9.45 0.49833,0.5225 0.91965,2.5475 0.93626,4.5 0.0166,1.9525 0.93853,7.825 2.0487,13.05 1.11016,5.225 2.24037,11.51006 2.51157,13.96681 0.2712,2.45674 0.9852,4.77094 1.58665,5.14267 0.63413,0.39191 0.81863,1.77127 0.43917,3.28319 -0.38455,1.53216 -0.23418,2.60733 0.36465,2.60733 0.56048,0 1.01905,0.9 1.01905,2 0,1.1 -0.3567,2 -0.79267,2 -0.43597,0 -0.1892,4.3875 0.54839,9.75 2.53056,18.39797 3.37515,36.80812 3.47512,75.75 0.13454,52.40585 -0.17989,64.54557 -1.73656,67.04658 -0.7006,1.12562 -1.51118,4.27562 -1.80129,7 -0.29011,2.72438 -1.25955,7.87842 -2.15431,11.45342 -0.89476,3.575 -1.87294,8.3 -2.17373,10.5 -0.54586,3.99246 -9.00829,30.10511 -10.37036,32 -0.39535,0.55 -1.0367,2.35 -1.42523,4 -0.6516,2.76724 -8.75094,19.7078 -10.51827,22 -0.42406,0.55 -2.71541,4.6 -5.09189,9 -2.37647,4.4 -4.91381,8.59397 -5.63853,9.31993 -0.72472,0.72596 -1.61397,2.50051 -1.97613,3.94344 -0.87414,3.48287 -5.1163,9.62244 -15.01901,21.73663 -10.95112,13.39673 -19.0786,21.66675 -29.51593,30.03356 -8.12604,6.51403 -14.10807,10.31355 -39.3096,24.96769 -5.5,3.19814 -13.93269,8.21868 -18.73931,11.15677 -4.80663,2.93809 -9.02276,5.34198 -9.36919,5.34198 -0.34643,0 -3.38874,1.6774 -6.76069,3.72755 C 593.76578,645.72553 572.06278,657 570.38191,657 c -0.31881,0 -1.99766,0.61176 -3.73078,1.35947 -23.10126,9.9664 -36.25251,12.65459 -64.15113,13.11284 -11.55,0.18972 -24.6,-0.003 -29,-0.42852 z m 57.5,-3.90443 c 5.225,-1.07975 12.875,-3.07898 17,-4.44273 7.17384,-2.37171 9.59851,-3.2945 16.65113,-6.33716 1.73312,-0.74771 3.41197,-1.35947 3.73078,-1.35947 1.68087,0 23.38387,-11.27447 33.2489,-17.27245 C 605.00276,635.6774 608.04507,634 608.3915,634 c 0.34643,0 4.56256,-2.40389 9.36919,-5.34198 4.80662,-2.93809 13.23931,-7.95863 18.73931,-11.15677 25.20153,-14.65414 31.18356,-18.45366 39.3096,-24.96769 10.43733,-8.36681 18.56481,-16.63683 29.51593,-30.03356 9.90271,-12.11419 14.14487,-18.25376 15.01901,-21.73663 0.36216,-1.44293 1.25141,-3.21748 1.97613,-3.94344 0.72472,-0.72596 3.26206,-4.91993 5.63853,-9.31993 2.37648,-4.4 4.66783,-8.45 5.09189,-9 1.76733,-2.2922 9.86667,-19.23276 10.51827,-22 0.38853,-1.65 1.02988,-3.45 1.42523,-4 1.36207,-1.89489 9.8245,-28.00754 10.37036,-32 0.30079,-2.2 1.27897,-6.925 2.17373,-10.5 0.89476,-3.575 1.86086,-8.75 2.14688,-11.5 0.28603,-2.75 0.96012,-5.53989 1.49799,-6.19976 1.47642,-1.81129 2.05057,-18.80321 2.05442,-60.80024 0.005,-51.25377 -2.06824,-78.34826 -8.75283,-114.40474 -1.36683,-7.3726 -2.48514,-14.8201 -2.48514,-16.55 0,-1.72989 -0.40772,-3.57276 -0.90605,-4.09526 -0.49833,-0.5225 -1.64119,-4.775 -2.53968,-9.45 -0.89849,-4.675 -3.68167,-15.025 -6.18482,-23 -5.96527,-19.0052 -7.3271,-22.18422 -15.07494,-35.19077 -7.10846,-11.9332 -14.22945,-22.70562 -17.39142,-26.30923 -1.44779,-1.65 -6.40576,-7.33158 -11.01772,-12.62573 C 689.3499,118.92832 660.58593,93.044107 652.90799,88.5 651.97869,87.95 647.90672,85.282912 643.85917,82.573137 628.93731,72.58316 601.69154,60.467302 581,54.620441 561.80337,49.196 528.7752,46.041627 502.72609,47.14485 477.0581,48.231932 462.80605,51.839691 442.70362,62.338912 426.74838,70.672113 419.94454,75.889649 403.47465,92.421709 391.14551,104.79739 385.68642,111.27382 371.055,130.88298 367.61738,135.4901 358,150.747 358,151.59328 c 0,0.24555 -1.07542,2.15005 -2.38983,4.2322 C 352.58444,160.61854 344,180.6358 344,182.89815 c 0,0.93602 -0.38478,2.12935 -0.85506,2.65185 -1.2923,1.43579 -5.89549,16.79508 -8.07692,26.95 -6.60444,30.74469 -7.3248,86.71521 -1.67157,129.87864 1.43195,10.93326 2.60606,21.73326 2.60913,24 0.003,2.26675 0.45369,5.73452 1.00139,7.70616 0.54769,1.97164 1.42529,8.49664 1.95021,14.5 1.15065,13.1596 2.60981,26.80556 4.58892,42.9152 1.45422,11.83706 3.77094,38.50081 5.03941,58 0.65629,10.08851 7.70706,46.33744 10.60078,54.5 0.29248,0.825 1.75794,5.55 3.2566,10.5 13.38469,44.20917 35.11813,77.86083 61.92365,95.88145 23.65507,15.90265 39.65644,19.81038 78.13346,19.08119 13.80945,-0.26172 21.59527,-0.8964 28.5,-2.32328 z"
     id="path2987"
     inkscape:connector-curvature="0" />
</svg>
