<?xml version="1.0" encoding="UTF-8" standalone="no"?>
<!-- Created with Inkscape (http://www.inkscape.org/) -->

<svg
   xmlns:dc="http://purl.org/dc/elements/1.1/"
   xmlns:cc="http://creativecommons.org/ns#"
   xmlns:rdf="http://www.w3.org/1999/02/22-rdf-syntax-ns#"
   xmlns:svg="http://www.w3.org/2000/svg"
   xmlns="http://www.w3.org/2000/svg"
   xmlns:sodipodi="http://sodipodi.sourceforge.net/DTD/sodipodi-0.dtd"
   xmlns:inkscape="http://www.inkscape.org/namespaces/inkscape"
   id="svg2"
   version="1.1"
   inkscape:version="0.48.3.1 r9886"
   width="882"
   height="868"
   sodipodi:docname="F10-n.png">
  <metadata
     id="metadata8">
    <rdf:RDF>
      <cc:Work
         rdf:about="">
        <dc:format>image/svg+xml</dc:format>
        <dc:type
           rdf:resource="http://purl.org/dc/dcmitype/StillImage" />
        <dc:title></dc:title>
      </cc:Work>
    </rdf:RDF>
  </metadata>
  <defs
     id="defs6" />
  <sodipodi:namedview
     pagecolor="#ffffff"
     bordercolor="#666666"
     borderopacity="1"
     objecttolerance="10"
     gridtolerance="10"
     guidetolerance="10"
     inkscape:pageopacity="0"
     inkscape:pageshadow="2"
     inkscape:window-width="640"
     inkscape:window-height="480"
     id="namedview4"
     showgrid="false"
     inkscape:zoom="0.2718894"
     inkscape:cx="441"
     inkscape:cy="434"
     inkscape:window-x="0"
     inkscape:window-y="27"
     inkscape:window-maximized="0"
     inkscape:current-layer="svg2" />
  <path
     style="fill:#000000"
     d="m 491,659.52161 c -3.575,-0.66463 -9.875,-2.19796 -14,-3.4074 -4.125,-1.20944 -11.1,-2.8285 -15.5,-3.59791 -16.62431,-2.90701 -44.60002,-10.46886 -46.5,-12.56897 -0.275,-0.30396 -2.89056,-1.56604 -5.81236,-2.80462 -13.60583,-5.76764 -27.84406,-15.67514 -36.56758,-25.44513 C 366.06171,604.35251 359,595.40955 359,594.44914 c 0,-0.29345 -0.47625,-1.07706 -1.05834,-1.74135 -5.30239,-6.0512 -21.73598,-37.23191 -26.7252,-50.70779 -1.11996,-3.025 -4.15992,-11.35 -6.75546,-18.5 -2.59555,-7.15 -5.50488,-15.025 -6.46517,-17.5 -0.9603,-2.475 -2.95349,-8.55 -4.42932,-13.5 -1.47582,-4.95 -3.06105,-9.9 -3.52273,-11 -1.09448,-2.60771 -4.73989,-21.84091 -6.03153,-31.82236 -3.17559,-24.54004 0.37185,-58.4807 12.61306,-120.67764 4.79645,-24.37049 15.6115,-59.00289 23.87746,-76.46139 3.02348,-6.38587 5.49723,-11.8284 5.49723,-12.09452 0,-0.26611 1.14917,-2.30424 2.55371,-4.52918 3.05919,-4.84606 5.56573,-9.22535 10.25381,-17.91491 1.92874,-3.575 3.99912,-7.4 4.60084,-8.5 4.52056,-8.26397 17.40548,-24.93248 26.81673,-34.69135 9.95583,-10.32355 23.43336,-21.33545 29.27491,-23.91925 1.1,-0.48654 2.675,-1.31861 3.5,-1.84903 C 428.48003,145.51705 457.67222,135 461.97186,135 c 1.97549,0 3.14121,-0.22972 18.20859,-3.58818 5.55619,-1.23845 9.70491,-1.53111 15,-1.05812 11.9743,1.06961 22.25179,2.90568 23.32026,4.16616 0.64977,0.76654 6.61148,1.38802 17,1.77215 15.11832,0.55904 21.69823,1.59628 36.99929,5.83251 20.24581,5.60522 40.42392,19.40266 53.92865,36.87548 7.41033,9.58769 21.8562,42.04179 46.06963,103.5 4.76718,12.1 9.05949,22.7481 9.53846,23.66244 2.23078,4.25853 9.88678,26.334 12.60224,36.33756 1.56299,5.75792 1.93588,7.55082 4.36767,21 3.05418,16.89142 3.96709,40.76503 2.02666,53 -1.08985,6.87188 -2.80327,28.29996 -3.96853,49.63067 -0.43959,8.04687 -1.07847,15.08247 -1.41975,15.63466 -0.34127,0.5522 -1.0637,3.86839 -1.60539,7.36933 -0.54169,3.50094 -1.92754,9.51534 -3.07966,13.36534 -1.15211,3.85 -2.97577,10.07065 -4.05258,13.82366 -1.0768,3.75301 -2.60434,7.81037 -3.39454,9.01636 -0.79019,1.206 -2.089,4.04148 -2.88624,6.30109 -0.79723,2.2596 -2.55282,6.52723 -3.90132,9.48363 C 670.91586,553.8612 670,556.03918 670,557.11803 c 0,2.05824 -15.18211,23.43541 -19.44673,27.38197 -0.59432,0.55 -3.39331,3.925 -6.21996,7.5 -19.81528,25.06126 -58.54763,51.85233 -90.13268,62.34454 -18.36804,6.10166 -46.0363,8.36811 -63.20063,5.17707 z m 41.61063,-3.09834 c 13.60066,-1.77984 26.10588,-6.04407 44.18327,-15.06632 22.52782,-11.24342 50.68954,-33.19972 64.37434,-50.18947 3.48247,-4.32351 8.4085,-10.2924 10.94675,-13.2642 C 657.87269,571.16209 668,556.11289 668,554.29811 c 0,-0.74526 1.52003,-4.60471 3.37783,-8.57656 1.85781,-3.97185 4.6108,-10.35576 6.11776,-14.18646 1.50696,-3.83069 3.33388,-7.88069 4.05982,-9 0.72595,-1.1193 2.28192,-5.41009 3.45771,-9.53509 1.1758,-4.125 2.79406,-9.75 3.59614,-12.5 2.89582,-9.92862 6.19434,-31.2674 6.80147,-44 0.72886,-15.2857 0.97946,-18.60961 2.75184,-36.5 1.77755,-17.94257 1.50065,-39.15499 -0.65921,-50.5 -0.94238,-4.95 -2.07438,-11.025 -2.51556,-13.5 -2.3343,-13.0955 -8.69063,-31.68947 -22.90385,-67 -31.32713,-77.82737 -40.55032,-98.48845 -48.65804,-109 -8.7865,-11.3916 -24.14868,-23.6919 -37.01218,-29.63521 -15.21601,-7.03023 -50.84424,-13.83082 -62.60607,-11.95002 -2.35943,0.37728 -4.74172,0.13488 -6.09128,-0.61981 -6.64425,-3.71553 -26.06498,-5.91208 -34.99548,-3.95811 -2.87149,0.62828 -9.85379,2.03839 -15.51622,3.13358 -10.75904,2.08095 -24.40164,6.3038 -34.03841,10.53605 -27.74654,12.18563 -53.10339,37.50265 -71.19688,71.08505 -2.93616,5.44966 -7.18602,13.05847 -9.44412,16.90847 -14.66409,25.00184 -28.61626,67.03493 -35.51685,107 -0.47483,2.75 -2.04129,11.3 -3.48103,19 C 308.92302,386.12506 306,412.69427 306,429.92131 c 0,25.28937 5.09867,49.07508 17.80862,83.07869 2.15859,5.775 5.76982,15.57945 8.02494,21.78767 11.1429,30.67568 28.87913,60.86494 45.52091,77.48219 14.66628,14.64467 36.70055,25.99631 63.40935,32.66732 8.6549,2.16172 17.98618,4.24612 20.73618,4.632 2.75,0.38589 9.5,1.94343 15,3.4612 21.89631,6.04248 31.44949,6.62014 56.11063,3.39289 z"
     id="path2987"
     inkscape:connector-curvature="0" />
</svg>
