Berolina;Ackersegen
Lama;Biene
Lama;Panther
Lamia;Rosalie
Lamia;Spunta
Lenor;Eersteling
Lenor;Eersteling
Libelle;Fruka
Libelle;Schwalbe
Lindsey;Maris Piper
Lindsey;Pentland Ivory
Lipa;Kerpondy
Lipa;Tatranka
Lipinski Wczesny;Edelgard
Lipinski Wczesny;Majestic
Liwia;Dr McIntosh
Liwia;Epoka
Lizen;Alcmaria
Lizen;Apollo
Ljubereckij;Flava
Ljubereckij;Priekulskij Rannij
Lorch;Furstenkrone
Lorch;Switez
Lorh;Smyslovskii
Lorh;Switez
Lorkh;Smyslovskii
Lorkh;Switez
Loshitsky;Korenevsky
Loshitsky;Olev
Losickij;Korenevsky
Losickij;Olev
Lovaszpatonai Rozsagyongye;Alma
Lovaszpatonai Rozsagyongye;Pepo
Malika;Primura
Malika;Rheinhort
Matilda;Bintje
Matilda;Gabriela
May Queen;Herald
May Queen;S. rybinii
Mikel;Kathadin
Mikel;Palogan
Mila;Dekama
Mila;Schwalbe
Minea;Arran Pilot
Minea;Menominee
Minster;Foxton
Minster;Pentland Ivory
Moewe;Preussen
Moewe;Seydlitz
Move;Preussen
Move;Seydlitz
Murmanskij;Epicure
Murmanskij;Epicure
Nemeshaevskii Yubileinyi;Borodyansky
Nemeshaevskii Yubileinyi;Olev
Nordstern;Cosima
Nordstern;Rheinhort
Norelia;Alcmaria
Norelia;Colmo
Odra;Hochprozentige
Odra;Uran
Odran;Hochprozentige
Odran;Uran
Onda;Kathadin
Onda;Palogan
Osa;Epoka
Osa;Olympia
Rosafolia;Centifolia
Rosafolia;Parnassia
Rosva;Bintje
Rosva;Dr McIntosh
Rozen;Rosalie
Rozen;Roseval
Rubicon;Cara
Rubicon;Foxton
Rubingold;Gelbe Nation
Rubingold;Rosafolia
Samba;Baraka
Samba;Roseval
Sasanka;Giewont
Sasanka;Schwalbe
Saskia;Herald
Saskia;Rode Eersteling
Scala;Alcmaria
Scala;Prima
Schenklander;Furore
Schenklander;USDA
Sebastian;B890 AB42
Sebastian;Cara
Secunda;Cosima
Secunda;Tasso
Selma;Delos
Selma;Olympia
Semena;Alcmaria
Semena;Prima
Semlo;Bintje
Semlo;Gabriela
Senta;Delos
Senta;Dora
Severnaya Roza;Early Rose
Severnaya Roza;Jubel
Shelley;Harmony
Shelley;Thurso
Sickingen;Centifolia
Sickingen;Pepo
Sissi;Comtessa
Sissi;Vera
Sissy;Comtessa
Sissy;Vera
Slavyanskii;Olev
Slavyanskii;Prijekulskii Rannii
Sommerniere;Cara
Sommerniere;Clone ?
Sonja;Hydra
Sonja;Nicola
Sotka;Olev
Sotka;Priekulskij Rannij
Stina;Amaryl
Stina;Parnassia
Sverdlovskij;Alma
Sverdlovskij;Epicure
Swit;Early Rose
Swit;Rosafolia
Taborky;Frieso
Taborky;Parnassia
Tasso;Biene
Tasso;Clone ?
Tenor;Hydra
Tenor;Primura
Verchovina;Karpatskij
Verchovina;Priekulskij Rannij
Vindika;Humalda
Vindika;Rheinhort
Volzskij;Centifolia
Volzskij;Early Rose
Vorwarts;Clone ?
Vorwarts;Flava
Wega (DEU);Edda
Wega (DEU);Ostbote
