<?xml version="1.0" encoding="UTF-8" standalone="no"?>
<!-- Created with Inkscape (http://www.inkscape.org/) -->

<svg
   xmlns:dc="http://purl.org/dc/elements/1.1/"
   xmlns:cc="http://creativecommons.org/ns#"
   xmlns:rdf="http://www.w3.org/1999/02/22-rdf-syntax-ns#"
   xmlns:svg="http://www.w3.org/2000/svg"
   xmlns="http://www.w3.org/2000/svg"
   xmlns:sodipodi="http://sodipodi.sourceforge.net/DTD/sodipodi-0.dtd"
   xmlns:inkscape="http://www.inkscape.org/namespaces/inkscape"
   id="svg2"
   version="1.1"
   inkscape:version="0.48.3.1 r9886"
   width="882"
   height="868"
   sodipodi:docname="D06-n.png">
  <metadata
     id="metadata8">
    <rdf:RDF>
      <cc:Work
         rdf:about="">
        <dc:format>image/svg+xml</dc:format>
        <dc:type
           rdf:resource="http://purl.org/dc/dcmitype/StillImage" />
        <dc:title></dc:title>
      </cc:Work>
    </rdf:RDF>
  </metadata>
  <defs
     id="defs6" />
  <sodipodi:namedview
     pagecolor="#ffffff"
     bordercolor="#666666"
     borderopacity="1"
     objecttolerance="10"
     gridtolerance="10"
     guidetolerance="10"
     inkscape:pageopacity="0"
     inkscape:pageshadow="2"
     inkscape:window-width="640"
     inkscape:window-height="480"
     id="namedview4"
     showgrid="false"
     inkscape:zoom="0.2718894"
     inkscape:cx="441"
     inkscape:cy="434"
     inkscape:window-x="0"
     inkscape:window-y="27"
     inkscape:window-maximized="0"
     inkscape:current-layer="svg2" />
  <path
     style="fill:#000000"
     d="m 517,615.42668 c 0,-3.28234 3.34535,-2.99021 3.81955,0.33354 0.2427,1.70114 -0.17815,2.23978 -1.75,2.23978 C 517.51297,618 517,617.36216 517,615.42668 z m 11,-37.99736 c -1.375,-0.23959 -5.875,-0.91983 -10,-1.51164 -12.12355,-1.73935 -32.0279,-5.90981 -38.5,-8.06671 -6.76485,-2.25446 -25.43761,-10.83691 -33,-15.16758 -12.99034,-7.43905 -23.14502,-17.12505 -30.86587,-29.4413 -1.46807,-2.34186 -4.12382,-5.49186 -5.90167,-7 -8.15353,-6.91662 -11.86283,-11.57804 -21.06868,-26.47669 -0.92934,-1.50403 -3.42706,-6.67903 -5.55051,-11.5 -2.12344,-4.82097 -4.79242,-10.7904 -5.93107,-13.2654 -4.01672,-8.73086 -9.54905,-27.70552 -14.28664,-49 -2.05646,-9.24334 -2.33732,-13.13299 -2.34668,-32.5 -0.009,-19.50653 0.24843,-23.07515 2.27519,-31.48612 6.1257,-25.42138 14.68622,-44.3788 31.71361,-70.23032 14.7036,-22.32346 26.64219,-36.57465 40.33342,-48.14635 24.97348,-21.10735 50.56833,-29.64479 88.83949,-29.6334 22.0286,0.007 37.82101,3.69635 57.83691,13.51325 10.94934,5.37015 13.20838,6.80904 24.24837,15.44491 12.87774,10.07341 23.15871,21.51798 35.06895,39.03803 8.32932,12.2525 19.79764,35.48938 21.58669,43.73853 0.3863,1.7812 1.11774,3.49525 1.62543,3.80902 0.50768,0.31377 0.92306,2.02893 0.92306,3.81147 0,1.78254 0.47811,3.71909 1.06247,4.30345 1.02606,1.02606 1.65519,6.21999 3.85646,31.83753 1.57416,18.31962 -1.20987,56.18133 -4.77956,65 -0.44526,1.1 -2.44856,6.99495 -4.45176,13.09989 -3.34428,10.19196 -13.27927,32.04072 -19.11348,42.03384 -1.32735,2.27355 -4.7566,7.41765 -7.62056,11.43133 -2.91985,4.09203 -6.0455,9.96336 -7.11564,13.36627 -1.04964,3.33777 -2.63427,8.31867 -3.5214,11.06867 -2.6213,8.12581 -11.13102,24.49077 -16.51668,31.76307 -10.07679,13.60676 -25.10131,23.87428 -41.29985,28.22364 -5.81218,1.56059 -31.92826,2.91348 -37.5,1.94261 z m 36.42004,-4.89732 c 23.4915,-6.32983 40.4428,-22.29241 52.56545,-49.49944 C 619.74347,516.84279 622,511.20069 622,510.49455 c 0,-3.73153 4.44569,-14.79065 7.61353,-18.93944 14.33667,-18.77617 30.92042,-56.1461 34.92889,-78.70903 0.81551,-4.59034 1.91719,-15.77108 2.44817,-24.84608 1.44029,-24.61585 -1.6854,-57.20267 -6.59769,-68.78393 -0.76609,-1.80616 -1.40781,-3.83116 -1.42604,-4.5 -0.0522,-1.91453 -9.05282,-21.44085 -13.69762,-29.71607 -2.31533,-4.125 -6.02344,-9.975 -8.24025,-13 -2.21681,-3.025 -5.1023,-7.075 -6.4122,-9 -4.97971,-7.31809 -16.9242,-19.55974 -27.80819,-28.5 -10.73688,-8.81943 -29.28529,-18.48267 -43.81348,-22.82569 -11.71104,-3.50086 -20.69436,-4.6756 -35.68667,-4.66672 -31.13296,0.0185 -53.23099,5.93024 -74.34714,19.88979 -10.1556,6.7137 -27.77058,23.57974 -36.13914,34.60262 -45.0098,59.28582 -57.74078,103.51192 -45.76995,159 5.43637,25.19907 16.04654,53.57586 26.73406,71.5 3.87554,6.4997 8.51468,12.37395 14.68912,18.59993 4.96353,5.00496 10.1496,11.03575 11.5246,13.40174 3.55136,6.11093 15.43957,18.01485 22.5,22.52975 11.32038,7.23899 31.85069,16.78906 42.5,19.76971 7.03359,1.96864 23.81053,5.311 36,7.17204 11.95566,1.82535 35.00722,1.32569 43.42004,-0.94117 z"
     id="path2987"
     inkscape:connector-curvature="0" />
</svg>
